%!PS-Adobe-3.0 EPSF-3.0
%%BoundingBox: 308 20 981 512
%%BeginProcSet: reencode 1.0 0 
/RE 
{  findfont begin 
  currentdict dup length dict begin 
  {1 index /FID ne {def} {pop pop} ifelse} forall 
  /FontName exch def dup length 0 ne 
  { /Encoding Encoding 256 array copy def 
      0 exch 
      { dup type /nametype eq 
        { Encoding 2 index 2 index put 
          pop 1 add 
        } 
        { exch pop 
        } ifelse 
      } forall 
  } if pop 
  currentdict dup end end 
  /FontName get exch definefont pop 
    } bind def 
%%EndProcSet: reencode 1.0 0 
%%BeginProcSet: ellipse 1.0 0 
/ellipsedict 8 dict def 
ellipsedict /mtrx matrix put 
/ellipse { ellipsedict begin 
/endangle exch def 
/startangle exch def 
/yrad exch def 
/xrad exch def 
/y exch def 
/x exch def 
/savematrix mtrx currentmatrix def 
x y translate 
xrad yrad scale 
0 0 1 0 360 arc 
savematrix setmatrix end } def 
%%EndProcSet: ellipse 1.0 0 
%%EndProlog
%%BeginSetup
/isolatin1encoding 
[ 32 /space /exclam /quotedbl /numbersign /dollar /percent /ampersand /quoteright 
 /parenleft /parenright /asterisk /plus /comma /hyphen /period /slash /zero /one 
 /two /three /four /five /six /seven /eight /nine /colon /semicolon 
 /less /equal /greater /question /at /A /B /C /D /E 
 /F /G /H /I /J /K /L /M /N /O 
 /P /Q /R /S /T /U /V /W /X /Y 
 /Z /bracketleft /backslash /bracketright /asciicircum /underscore /quoteleft /a /b /c 
 /d /e /f /g /h /i /j /k /l /m 
 /n /o /p /q /r /s /t /u /v /w 
 /x /y /z /braceleft /bar /braceright /asciitilde /.notdef /.notdef /.notdef 
 /.notdef /.notdef /.notdef /.notdef /.notdef /.notdef /.notdef /.notdef /.notdef /.notdef 
 /.notdef /.notdef /.notdef /.notdef /.notdef /.notdef /.notdef /.notdef /.notdef /.notdef 
 /.notdef /.notdef /.notdef /.notdef /.notdef /.notdef /.notdef /.notdef /.notdef /.notdef 
 /space /exclamdown /cent /sterling /currency /yen /brokenbar /section /dieresis /copyright 
 /ordfeminine /guillemotleft /logicalnot /hyphen /registered /macron /degree /plusminus /twosuperior /threesuperior 
 /acute /mu /paragraph /periodcentered /cedilla /onesuperior /ordmasculine /guillemotright /onequarter /onehalf 
 /threequarters /questiondown /Agrave /Aacute /Acircumflex /Atilde /Adieresis /Aring /AE /Ccedilla 
 /Egrave /Eacute /Ecircumflex /Edieresis /Igrave /Iacute /Icircumflex /Idieresis /Eth /Ntilde 
 /Ograve /Oacute /Ocircumflex /Otilde /Odieresis /multiply /Oslash /Ugrave /Uacute /Ucircumflex 
 /Udieresis /Yacute /Thorn /germandbls /agrave /aacute /acircumflex /atilde /adieresis /aring 
 /ae /ccedilla /egrave /eacute /ecircumflex /edieresis /igrave /iacute /icircumflex /idieresis 
 /eth /ntilde /ograve /oacute /ocircumflex /otilde /odieresis /divide /oslash /ugrave 
 /uacute /ucircumflex /udieresis /yacute /thorn /ydieresis] def 
%%EndSetup
1 setlinewidth
isolatin1encoding /_Helvetica /Helvetica RE
/_Helvetica findfont
12 scalefont setfont
0.0 0.0 0.0 setrgbcolor
0 532 translate
1.0 1.0 scale
1.0 0.78431374 0.0 setrgbcolor
newpath
528 -200 moveto
65 0 rlineto
0 -67 rlineto
-65 0 rlineto
closepath
eofill
0.0 0.0 0.0 setrgbcolor
newpath
528 -200 moveto
66 0 rlineto
0 -68 rlineto
-66 0 rlineto
closepath
stroke
isolatin1encoding /_Lucida Grande /Lucida Grande RE
/_Lucida Grande findfont
13 scalefont setfont
540 -214 moveto
(ggplot) show
newpath
528 -224 moveto
65 0 rlineto
0 0 rlineto
-65 0 rlineto
closepath
eofill
newpath
528 -245 moveto
65 0 rlineto
0 0 rlineto
-65 0 rlineto
closepath
eofill
1.0 1.0 1.0 setrgbcolor
newpath
480 -88 moveto
65 0 rlineto
0 -67 rlineto
-65 0 rlineto
closepath
eofill
0.7529412 0.7529412 0.7529412 setrgbcolor
newpath
480 -88 moveto
66 0 rlineto
0 -68 rlineto
-66 0 rlineto
closepath
stroke
0.0 0.0 0.0 setrgbcolor
486 -102 moveto
(Mapping) show
0.7529412 0.7529412 0.7529412 setrgbcolor
newpath
480 -112 moveto
65 0 rlineto
0 0 rlineto
-65 0 rlineto
closepath
eofill
newpath
480 -133 moveto
65 0 rlineto
0 0 rlineto
-65 0 rlineto
closepath
eofill
1.0 1.0 1.0 setrgbcolor
newpath
576 -88 moveto
65 0 rlineto
0 -67 rlineto
-65 0 rlineto
closepath
eofill
0.7529412 0.7529412 0.7529412 setrgbcolor
newpath
576 -88 moveto
66 0 rlineto
0 -68 rlineto
-66 0 rlineto
closepath
stroke
0.0 0.0 0.0 setrgbcolor
594 -102 moveto
(Data) show
0.7529412 0.7529412 0.7529412 setrgbcolor
newpath
576 -112 moveto
65 0 rlineto
0 0 rlineto
-65 0 rlineto
closepath
eofill
newpath
576 -133 moveto
65 0 rlineto
0 0 rlineto
-65 0 rlineto
closepath
eofill
0.0 0.0 0.0 setrgbcolor
newpath
521 -188 moveto
528 -200 lineto
stroke
newpath
535 -188 moveto
528 -200 lineto
stroke
newpath
586 -188 moveto
593 -200 lineto
stroke
newpath
600 -188 moveto
593 -200 lineto
stroke
0.78431374 0.78431374 1.0 setrgbcolor
newpath
336 -320 moveto
65 0 rlineto
0 -67 rlineto
-65 0 rlineto
closepath
eofill
0.0 0.0 0.0 setrgbcolor
newpath
336 -320 moveto
66 0 rlineto
0 -68 rlineto
-66 0 rlineto
closepath
stroke
346 -334 moveto
(Coords) show
newpath
336 -344 moveto
65 0 rlineto
0 0 rlineto
-65 0 rlineto
closepath
eofill
newpath
336 -365 moveto
65 0 rlineto
0 0 rlineto
-65 0 rlineto
closepath
eofill
0.78431374 1.0 1.0 setrgbcolor
newpath
464 -320 moveto
65 0 rlineto
0 -67 rlineto
-65 0 rlineto
closepath
eofill
0.0 0.0 0.0 setrgbcolor
newpath
464 -320 moveto
66 0 rlineto
0 -68 rlineto
-66 0 rlineto
closepath
stroke
481 -334 moveto
(Scale) show
newpath
464 -344 moveto
65 0 rlineto
0 0 rlineto
-65 0 rlineto
closepath
eofill
newpath
464 -365 moveto
65 0 rlineto
0 0 rlineto
-65 0 rlineto
closepath
eofill
1.0 0.78431374 1.0 setrgbcolor
newpath
720 -320 moveto
65 0 rlineto
0 -67 rlineto
-65 0 rlineto
closepath
eofill
0.0 0.0 0.0 setrgbcolor
newpath
720 -320 moveto
66 0 rlineto
0 -68 rlineto
-66 0 rlineto
closepath
stroke
736 -334 moveto
(Layer) show
newpath
720 -344 moveto
65 0 rlineto
0 0 rlineto
-65 0 rlineto
closepath
eofill
newpath
720 -365 moveto
65 0 rlineto
0 0 rlineto
-65 0 rlineto
closepath
eofill
1.0 1.0 0.78431374 setrgbcolor
newpath
592 -320 moveto
65 0 rlineto
0 -67 rlineto
-65 0 rlineto
closepath
eofill
0.0 0.0 0.0 setrgbcolor
newpath
592 -320 moveto
66 0 rlineto
0 -68 rlineto
-66 0 rlineto
closepath
stroke
608 -334 moveto
(Facet) show
newpath
592 -344 moveto
65 0 rlineto
0 0 rlineto
-65 0 rlineto
closepath
eofill
newpath
592 -365 moveto
65 0 rlineto
0 0 rlineto
-65 0 rlineto
closepath
eofill
newpath
519 -278 moveto
528 -267 lineto
stroke
newpath
514 -265 moveto
528 -267 lineto
stroke
newpath
535 -279 moveto
528 -267 lineto
stroke
newpath
521 -279 moveto
528 -267 lineto
stroke
newpath
606 -265 moveto
593 -267 lineto
stroke
newpath
601 -278 moveto
593 -267 lineto
stroke
newpath
600 -279 moveto
593 -267 lineto
stroke
newpath
586 -279 moveto
593 -267 lineto
stroke
1.0 1.0 1.0 setrgbcolor
newpath
888 -384 moveto
65 0 rlineto
0 -67 rlineto
-65 0 rlineto
closepath
eofill
0.0 0.0 0.0 setrgbcolor
newpath
888 -384 moveto
66 0 rlineto
0 -68 rlineto
-66 0 rlineto
closepath
stroke
894 -398 moveto
(Mapping) show
newpath
888 -408 moveto
65 0 rlineto
0 0 rlineto
-65 0 rlineto
closepath
eofill
newpath
888 -429 moveto
65 0 rlineto
0 0 rlineto
-65 0 rlineto
closepath
eofill
1.0 1.0 1.0 setrgbcolor
newpath
888 -304 moveto
65 0 rlineto
0 -67 rlineto
-65 0 rlineto
closepath
eofill
0.0 0.0 0.0 setrgbcolor
newpath
888 -304 moveto
66 0 rlineto
0 -68 rlineto
-66 0 rlineto
closepath
stroke
906 -318 moveto
(Data) show
newpath
888 -328 moveto
65 0 rlineto
0 0 rlineto
-65 0 rlineto
closepath
eofill
newpath
888 -349 moveto
65 0 rlineto
0 0 rlineto
-65 0 rlineto
closepath
eofill
newpath
797 -361 moveto
785 -368 lineto
stroke
newpath
797 -375 moveto
785 -368 lineto
stroke
newpath
797 -337 moveto
785 -344 lineto
stroke
newpath
797 -351 moveto
785 -344 lineto
stroke
1.0 0.78431374 1.0 setrgbcolor
newpath
728 -440 moveto
65 0 rlineto
0 -67 rlineto
-65 0 rlineto
closepath
eofill
0.0 0.0 0.0 setrgbcolor
newpath
728 -440 moveto
66 0 rlineto
0 -68 rlineto
-66 0 rlineto
closepath
stroke
743 -454 moveto
(Geom) show
newpath
728 -464 moveto
65 0 rlineto
0 0 rlineto
-65 0 rlineto
closepath
eofill
newpath
728 -485 moveto
65 0 rlineto
0 0 rlineto
-65 0 rlineto
closepath
eofill
1.0 0.78431374 1.0 setrgbcolor
newpath
640 -440 moveto
65 0 rlineto
0 -67 rlineto
-65 0 rlineto
closepath
eofill
0.0 0.0 0.0 setrgbcolor
newpath
640 -440 moveto
66 0 rlineto
0 -68 rlineto
-66 0 rlineto
closepath
stroke
661 -454 moveto
(Stat) show
newpath
640 -464 moveto
65 0 rlineto
0 0 rlineto
-65 0 rlineto
closepath
eofill
newpath
640 -485 moveto
65 0 rlineto
0 0 rlineto
-65 0 rlineto
closepath
eofill
1.0 0.78431374 1.0 setrgbcolor
newpath
552 -440 moveto
65 0 rlineto
0 -67 rlineto
-65 0 rlineto
closepath
eofill
0.0 0.0 0.0 setrgbcolor
newpath
552 -440 moveto
66 0 rlineto
0 -68 rlineto
-66 0 rlineto
closepath
stroke
559 -454 moveto
(Position) show
newpath
552 -464 moveto
65 0 rlineto
0 0 rlineto
-65 0 rlineto
closepath
eofill
newpath
552 -485 moveto
65 0 rlineto
0 0 rlineto
-65 0 rlineto
closepath
eofill
1.0 1.0 1.0 setrgbcolor
newpath
760 -387 moveto
767 -399 lineto
753 -399 lineto
closepath
eofill
0.0 0.0 0.0 setrgbcolor
newpath
760 -387 moveto
767 -399 lineto
753 -399 lineto
closepath
stroke
1.0 1.0 1.0 setrgbcolor
newpath
744 -387 moveto
751 -399 lineto
737 -399 lineto
closepath
eofill
0.0 0.0 0.0 setrgbcolor
newpath
744 -387 moveto
751 -399 lineto
737 -399 lineto
closepath
stroke
1.0 1.0 1.0 setrgbcolor
newpath
728 -387 moveto
735 -399 lineto
721 -399 lineto
closepath
eofill
0.0 0.0 0.0 setrgbcolor
newpath
728 -387 moveto
735 -399 lineto
721 -399 lineto
closepath
stroke
819 -104 moveto
(Useful if we want to) show
819 -120 moveto
(put multiple datasets) show
819 -136 moveto
(in the same plots) show
0.5019608 0.5019608 0.5019608 setrgbcolor
newpath
448 -24 moveto
260 0 rlineto
0 -19 rlineto
-260 0 rlineto
closepath
eofill
isolatin1encoding /_Lucida Grande-Bold /Lucida Grande-Bold RE
/_Lucida Grande-Bold findfont
16 scalefont setfont
1.0 1.0 1.0 setrgbcolor
448 -40 moveto
(Grammar of Graphics on ggplot) show
isolatin1encoding /_Lucida Grande /Lucida Grande RE
/_Lucida Grande findfont
13 scalefont setfont
0.0 0.0 0.0 setrgbcolor
880 -501 moveto
(juan salamanca) show
315 -104 moveto
(Added by default) show
newpath
605 -233 moveto
593 -240 lineto
stroke
newpath
605 -247 moveto
593 -240 lineto
stroke
728 -220 moveto
(Overrides defaults) show
newpath
605 -193 moveto
593 -200 lineto
stroke
newpath
605 -207 moveto
593 -200 lineto
stroke
818 -180 moveto
(Overrides defaults) show
showpage
%%Trailer
